User-Id,First-Name,Last-Name,Rating
0,FirstName 0,LastName 0,175
1,FirstName 1,LastName 1,268
2,FirstName 2,LastName 2,288
3,FirstName 3,LastName 3,134
4,FirstName 4,LastName 4,242
5,FirstName 5,LastName 5,174
6,FirstName 6,LastName 6,229
7,FirstName 7,LastName 7,8
8,FirstName 8,LastName 8,45
9,FirstName 9,LastName 9,287
